Exploring Data with R
…
filepath <- here('data', "who_tubercolosis_data.csv")

tb <- filepath |> import(setclass = 'tibble')

tb
```
]

.pull-right[

```
## # A tibble: 3,850 × 18
##    country   who_region  year    pop incidence_100k incidence_number hiv_percent
##    <chr>     <chr>      <int>  <int>          <dbl>            <int>       <dbl>
##  1 Afghanis… EMR         2000 2.01e7            190            38000        0.36
##  2 Afghanis… EMR         2001 2.10e7            189            40000        0.3 
##  3 Afghanis… EMR         2002 2.20e7            189            42000        0.26
##  4 Afghanis… EMR         2003 2.31e7            189            44000        0.23
##  5 Afghanis… EMR         2004 2.41e7            189            46000        0.22
##  6 Afghanis… EMR         2005 2.51e7            189            47000        0.22
##  7 Afghanis… EMR         2006 2.59e7            189            49000        0.22
##  8 Afghanis… EMR         2007 2.66e7            189            50000        0.23
##  9 Afghanis… EMR         2008 2.73e7            189            52000        0.23
## 10 Afghanis… EMR         2009 2.80e7            189            53000        0.24
## # ℹ 3,840 more rows
## # ℹ 11 more variables: hiv_incidence_100k <dbl>, hiv_number <int>,
## #   mort_nohiv_100k <dbl>, mort_nohiv_number <int>, mort_hiv_100k <dbl>,
## #   mort_hiv_number <int>, mort_100k <dbl>, mort_number <int>,
## #   case_fatality_ratio <dbl>, new_incidence_100k <dbl>,
## #   case_detection_percent <dbl>
```
…
]

---

class: middle

## Filter 2015 and above

```r
tb %>% 
  filter(year >= 2015) 
```

```
## # A tibble: 648 × 18
##    country   who_region  year    pop incidence_100k incidence_number hiv_percent
##    <chr>     <chr>      <int>  <int>          <dbl>            <int>       <dbl>
##  1 Afghanis… EMR         2015 3.37e7          189              64000        0.3 
##  2 Afghanis… EMR         2016 3.47e7          189              65000        0.31
##  3 Afghanis… EMR         2017 3.55e7          189              67000        0.31
##  4 Albania   EUR         2015 2.92e6           16                480        0.82
##  5 Albania   EUR         2016 2.93e6           16                480        0.83
##  6 Albania   EUR         2017 2.93e6           20                580        0.85
##  7 Algeria   AFR         2015 3.99e7           74              30000        0.58
##  8 Algeria   AFR         2016 4.06e7           70              29000        0.6 
##  9 Algeria   AFR         2017 4.13e7           70              29000        0.62
## 10 American… WPR         2015 5.55e4            8.3                5        0.1 
## # ℹ 638 more rows
## # ℹ 11 more variables: hiv_incidence_100k <dbl>, hiv_number <int>,
## #   mort_nohiv_100k <dbl>, mort_nohiv_number <int>, mort_hiv_100k <dbl>,
## #   mort_hiv_number <int>, mort_100k <dbl>, mort_number <int>,
## #   case_fatality_ratio <dbl>, new_incidence_100k <dbl>,
## #   case_detection_percent <dbl>
```
…
---

## `group_by()`

We saw that `summarize()` isn't that useful on its own. Neither is `group_by()`. 

All this does is takes an existing data frame and converts it into a grouped data frame where operations are performed by group.

```r
tb %>% 
  group_by(year)
```

```
## # A tibble: 3,850 × 18
## # Groups:   year [18]
##    country   who_region  year    pop incidence_100k incidence_number hiv_percent
##    <chr>     <chr>      <int>  <int>          <dbl>            <int>       <dbl>
##  1 Afghanis… EMR         2000 2.01e7            190            38000        0.36
##  2 Afghanis… EMR         2001 2.10e7            189            40000        0.3 
##  3 Afghanis… EMR         2002 2.20e7            189            42000        0.26
##  4 Afghanis… EMR         2003 2.31e7            189            44000        0.23
##  5 Afghanis… EMR         2004 2.41e7            189            46000        0.22
##  6 Afghanis… EMR         2005 2.51e7            189            47000        0.22
##  7 Afghanis… EMR         2006 2.59e7            189            49000        0.22
##  8 Afghanis… EMR         2007 2.66e7            189            50000        0.23
##  9 Afghanis… EMR         2008 2.73e7            189            52000        0.23
## 10 Afghanis… EMR         2009 2.80e7            189            53000        0.24
## # ℹ 3,840 more rows
## # ℹ 11 more variables: hiv_incidence_100k <dbl>, hiv_number <int>,
## #   mort_nohiv_100k <dbl>, mort_nohiv_number <int>, mort_hiv_100k <dbl>,
## #   mort_hiv_number <int>, mort_100k <dbl>, mort_number <int>,
## #   case_fatality_ratio <dbl>, new_incidence_100k <dbl>,
## #   case_detection_percent <dbl>
```

---

## Two variable `group_by()`

```r
tb %>% 
  group_by(year, who_region)
```

```
## # A tibble: 3,850 × 18
## # Groups:   year, who_region [108]
##    country   who_region  year    pop incidence_100k incidence_number hiv_percent
##    <chr>     <chr>      <int>  <int>          <dbl>            <int>       <dbl>
##  1 Afghanis… EMR         2000 2.01e7            190            38000        0.36
##  2 Afghanis… EMR         2001 2.10e7            189            40000        0.3 
##  3 Afghanis… EMR         2002 2.20e7            189            42000        0.26
##  4 Afghanis… EMR         2003 2.31e7            189            44000        0.23
##  5 Afghanis… EMR         2004 2.41e7            189            46000        0.22
##  6 Afghanis… EMR         2005 2.51e7            189            47000        0.22
##  7 Afghanis… EMR         2006 2.59e7            189            49000        0.22
##  8 Afghanis… EMR         2007 2.66e7            189            50000        0.23
##  9 Afghanis… EMR         2008 2.73e7            189            52000        0.23
## 10 Afghanis… EMR         2009 2.80e7            189            53000        0.24
## # ℹ 3,840 more rows
## # ℹ 11 more variables: hiv_incidence_100k <dbl>, hiv_number <int>,
## #   mort_nohiv_100k <dbl>, mort_nohiv_number <int>, mort_hiv_100k <dbl>,
## #   mort_hiv_number <int>, mort_100k <dbl>, mort_number <int>,
## #   case_fatality_ratio <dbl>, new_incidence_100k <dbl>,
## #   case_detection_percent <dbl>
```
…
## `if_else()`

Lets create a column called `ind_sub` if the country is in the Indian Subcontinent.

```r
tb %>% 
  mutate(indian_sub1 = if_else(country %in% indian_subcont, 
                              "Indian Subcontinent", "Others")) %>% 
  select(country, indian_sub1) %>% 
  distinct()
```

```
## # A tibble: 218 × 2
##    country             indian_sub1        
##    <chr>               <chr>              
##  1 Afghanistan         Indian Subcontinent
##  2 Albania             Others             
##  3 Algeria             Others             
##  4 American Samoa      Others             
##  5 Andorra             Others             
##  6 Angola              Others             
##  7 Anguilla            Others             
##  8 Antigua and Barbuda Others             
##  9 Argentina           Others             
## 10 Armenia             Others             
## # ℹ 208 more rows
```
…
