Quarto Group Activity: Day 3
…
Rows: 26,982
Columns: 5
$ date_reported <date> 2021-10-21, 2021-10-21, 2021-10-21, 2021-10-21, 2021-10…
$ district      <fct> Thiruvananthapuram, Thiruvananthapuram, Thiruvananthapur…
$ age           <dbl> 31, 87, 77, 65, 49, 88, 72, 74, 58, 55, 88, 87, 58, 57, …
$ sex           <fct> Male, Male, Male, Male, Male, Male, Male, Male, Female, …
$ date_of_death <date> 2021-10-14, 2021-10-08, 2021-10-18, 2021-10-17, 2021-10…

Code

df %>% as_tibble()

# A tibble: 26,982 × 5
   date_reported district             age sex    date_of_death
   <date>        <fct>              <dbl> <fct>  <date>       
 1 2021-10-21    Thiruvananthapuram    31 Male   2021-10-14   
 2 2021-10-21    Thiruvananthapuram    87 Male   2021-10-08   
 3 2021-10-21    Thiruvananthapuram    77 Male   2021-10-18   
 4 2021-10-21    Thiruvananthapuram    65 Male   2021-10-17   
 5 2021-10-21    Thiruvananthapuram    49 Male   2021-10-11   
 6 2021-10-21    Thiruvananthapuram    88 Male   2021-10-17   
 7 2021-10-21    Thiruvananthapuram    72 Male   2021-09-10   
 8 2021-10-21    Thiruvananthapuram    74 Male   2021-10-06   
 9 2021-10-21    Thiruvananthapuram    58 Female 2021-10-12   
10 2021-10-21    Thiruvananthapuram    55 Male   2021-10-18   
# ℹ 26,972 more rows
…
Answer

Code

# What does the above output tell you?
class(df)

[1] "tbl_df"     "tbl"        "data.frame"

Code

as_tibble(df)

# A tibble: 26,982 × 5
   date_reported district             age sex    date_of_death
   <date>        <fct>              <dbl> <fct>  <date>       
 1 2021-10-21    Thiruvananthapuram    31 Male   2021-10-14   
 2 2021-10-21    Thiruvananthapuram    87 Male   2021-10-08   
 3 2021-10-21    Thiruvananthapuram    77 Male   2021-10-18   
 4 2021-10-21    Thiruvananthapuram    65 Male   2021-10-17   
 5 2021-10-21    Thiruvananthapuram    49 Male   2021-10-11   
 6 2021-10-21    Thiruvananthapuram    88 Male   2021-10-17   
 7 2021-10-21    Thiruvananthapuram    72 Male   2021-09-10   
 8 2021-10-21    Thiruvananthapuram    74 Male   2021-10-06   
 9 2021-10-21    Thiruvananthapuram    58 Female 2021-10-12   
10 2021-10-21    Thiruvananthapuram    55 Male   2021-10-18   
# ℹ 26,972 more rows
…
deaths_df <- df %>% 
  group_by(district) |> 
  summarise(deaths = n())

According to this dataset, when did the maximum number of deaths occur?

Answer

Code

 df %>% 
  count(date_reported) %>% 
  arrange(-n) 

# A tibble: 431 × 2
   date_reported     n
   <date>        <int>
 1 2021-06-06      227
 2 2021-06-02      213
 3 2021-08-25      213
 4 2021-09-21      213
 5 2021-06-07      210
 6 2021-06-05      209
 7 2021-09-15      208
 8 2021-06-13      206
 9 2021-05-29      198
10 2021-08-19      197
# ℹ 421 more rows
…
